CacheMemory/Task3/cpu_wavedata.vcd
$date
	Wed Jul 16 04:45:09 2025
$end
$version
	Icarus Verilog
$end
$timescale
	1s
$end
$scope module cpu_tb $end
$var reg 1 ! CLK $end
$var reg 1 " RESET $end
$var integer 32 # i [31:0] $end
$scope module mysystem $end
$var wire 1 ! CLK $end
$var wire 1 " RESET $end
$var wire 1 $ WRITE_DATA_MEM2CAC $end
$var wire 1 % READ_DATA_MEM2CAC $end
$var wire 32 & OUTDATA_MEM2CAC [31:0] $end
$var wire 6 ' MEM_ADDRESS_MEM2CAC [5:0] $end
$var wire 1 ( INST_MEM_READ $end
$var wire 128 ) INST_MEM_DATA [127:0] $end
$var wire 1 * INST_MEM_BUSYWAIT $end
$var wire 6 + INST_MEM_ADDRESS [5:0] $end
$var wire 32 , INDATA_MEM2CAC [31:0] $end
$var wire 1 - BUSYWAIT_MEM2CAC $end
$scope module u_cpu $end
$var wire 1 . BUSYWAIT $end
$var wire 1 ! CLK $end
$var wire 1 " RESET $end
$var wire 1 / ZERO_FLAG $end
$var wire 1 $ WRITE_DATA_MEM2CAC $end
$var wire 1 0 WRITE_DATA_MEM $end
$var wire 1 1 SIGN_CONTROL $end
$var wire 1 2 REG_WRITE_ENABLE $end
$var wire 8 3 READ_MEM_OUT [7:0] $end
$var wire 1 % READ_DATA_MEM2CAC $end
$var wire 1 4 READ_DATA_MEM $end
$var wire 32 5 PC_OUT [31:0] $end
$var wire 32 6 PC_IN [31:0] $end
$var wire 32 7 OUTDATA_MEM2CAC [31:0] $end
$var wire 1 8 OPERAND_CONTROL $end
$var wire 8 9 OPERAND2 [7:0] $end
$var wire 8 : OPERAND1 [7:0] $end
$var wire 6 ; MEM_ADDRESS_MEM2CAC [5:0] $end
$var wire 1 < JUMP_CONTROL $end
$var wire 1 ( INST_MEM_READ $end
$var wire 128 = INST_MEM_DATA [127:0] $end
$var wire 1 * INST_MEM_BUSYWAIT $end
$var wire 6 > INST_MEM_ADDRESS [5:0] $end
$var wire 32 ? INSTRUCTION [31:0] $end
$var wire 32 @ INDATA_MEM2CAC [31:0] $end
$var wire 1 - BUSYWAIT_MEM2CAC $end
$var wire 1 A BUSYWAIT_INST_CACHE $end
$var wire 1 B BUSYWAIT_DATA_CACHE $end
$var wire 2 C BRANCH_CONTROL [1:0] $end
$var wire 8 D ALURESULT [7:0] $end
$var wire 3 E ALUOP [2:0] $end
$var reg 8 F ALU_IN_DATA1 [7:0] $end
$var reg 8 G ALU_IN_DATA2 [7:0] $end
$var reg 8 H REG_INDATA [7:0] $end
$scope module u_alu $end
$var wire 8 I DATA1 [7:0] $end
$var wire 8 J DATA2 [7:0] $end
$var wire 8 K sum [7:0] $end
$var wire 8 L shiftOut [7:0] $end
$var wire 8 M orOut [7:0] $end
$var wire 8 N mulOut [7:0] $end
$var wire 8 O fwdOut [7:0] $end
$var wire 8 P andOut [7:0] $end
$var wire 1 Q SHIFT_E $end
$var wire 1 R MUL_E $end
$var wire 3 S ALUOP [2:0] $end
$var reg 8 T RESULT [7:0] $end
$var reg 1 / ZERO $end
$scope module u0 $end
$var wire 8 U DATA2 [7:0] $end
$var wire 8 V RESULT [7:0] $end
$upscope $end
$scope module u1 $end
$var wire 8 W DATA1 [7:0] $end
$var wire 8 X DATA2 [7:0] $end
$var wire 8 Y RESULT [7:0] $end
$upscope $end
$scope module u3 $end
$var wire 8 Z DATA1 [7:0] $end
$var wire 8 [ DATA2 [7:0] $end
$var wire 8 \ RESULT [7:0] $end
$upscope $end
$scope module u4 $end
$var wire 8 ] DATA1 [7:0] $end
$var wire 8 ^ DATA2 [7:0] $end
$var wire 8 _ RESULT [7:0] $end
$upscope $end
$scope module u5 $end
$var wire 8 ` DATA1 [7:0] $end
$var wire 8 a DATA2 [7:0] $end
$var wire 1 R ENABLE $end
$var reg 8 b RESULT [7:0] $end
$var reg 16 c temp1 [15:0] $end
$var reg 16 d temp2 [15:0] $end
$var integer 32 e i [31:0] $end
$upscope $end
$scope module u6 $end
$var wire 8 f DATA1 [7:0] $end
$var wire 8 g DATA2 [7:0] $end
$var wire 1 Q ENABLE $end
$var reg 8 h RESULT [7:0] $end
$var reg 1 i sign $end
$var integer 32 j i [31:0] $end
$upscope $end
$upscope $end
$scope module u_control $end
$var wire 8 k OPCODE [7:0] $end
$var reg 3 l ALUOP [2:0] $end
$var reg 2 m BRANCH_CONTROL [1:0] $end
$var reg 1 < JUMP_CONTROL $end
$var reg 1 8 OPERAND_CONTROL $end
$var reg 1 4 READ_DATA_MEM $end
$var reg 1 1 SIGN_CONTROL $end
$var reg 1 0 WRITE_DATA_MEM $end
$var reg 1 2 WRITE_ENABLE $end
$upscope $end
$scope module u_data_cache $end
$var wire 8 n address [7:0] $end
$var wire 1 ! clk $end
$var wire 1 4 read $end
$var wire 1 " reset $end
$var wire 1 0 write $end
$var wire 8 o writedata [7:0] $end
$var wire 32 p mem_readdata [31:0] $end
$var wire 1 - mem_busywait $end
$var reg 3 q addr_index [2:0] $end
$var reg 2 r addr_offset [1:0] $end
$var reg 3 s addr_tag [2:0] $end
$var reg 1 B busywait $end
$var reg 1 t dirty $end
$var reg 1 u hit $end
$var reg 6 v mem_address [5:0] $end
$var reg 1 % mem_read $end
$var reg 1 $ mem_write $end
$var reg 32 w mem_writedata [31:0] $end
$var reg 1 x miss $end
$var reg 8 y readdata [7:0] $end
$var reg 3 z state [2:0] $end
$var reg 1 { valid $end
$var integer 32 | i [31:0] $end
$upscope $end
$scope module u_inst_cache $end
$var wire 1 ! clock $end
$var wire 1 " reset $end
$var wire 21 } tag [20:0] $end
$var wire 4 ~ offset [3:0] $end
$var wire 128 !" mem_readdata [127:0] $end
$var wire 1 * mem_busywait $end
$var wire 3 "" index [2:0] $end
$var wire 32 #" address [31:0] $end
$var reg 128 $" block_data [127:0] $end
$var reg 1 A busywait $end
$var reg 1 %" hit $end
$var reg 6 &" mem_address [5:0] $end
$var reg 1 ( mem_read $end
$var reg 1 '" miss $end
$var reg 32 (" readdata [31:0] $end
$var reg 32 )" selected_word [31:0] $end
$var reg 1 *" state $end
$var reg 21 +" stored_tag [20:0] $end
$var reg 1 ," stored_valid $end
$var integer 32 -" i [31:0] $end
$upscope $end
$scope module u_pc $end
$var wire 1 . BUSYWAIT $end
$var wire 1 ! CLK $end
$var wire 1 " RESET $end
$var wire 32 ." PC_IN [31:0] $end
$var reg 32 /" PC_OUT [31:0] $end
$upscope $end
$scope module u_pcIn $end
$var wire 2 0" BRANCH [1:0] $end
$var wire 8 1" BRANCH_ADDRESS [7:0] $end
$var wire 1 . BUSYWAIT $end
$var wire 1 ! CLK $end
$var wire 1 < JUMP $end
$var wire 32 2" PC_IN [31:0] $end
$var wire 1 " RESET $end
$var wire 1 / ZERO $end
$var reg 32 3" PC [31:0] $end
$var reg 32 4" PC_OUT [31:0] $end
$var reg 32 5" offset [31:0] $end
$upscope $end
$scope module u_regfile $end
$var wire 1 ! CLK $end
$var wire 3 6" INADDRESS [2:0] $end
$var wire 8 7" INDATA [7:0] $end
$var wire 3 8" OUT1ADDRESS [2:0] $end
$var wire 3 9" OUT2ADDRESS [2:0] $end
$var wire 1 " RESET $end
$var wire 1 2 WRITE $end
$var reg 8 :" OUT1DATA [7:0] $end
$var reg 8 ;" OUT2DATA [7:0] $end
$var integer 32 <" counter [31:0] $end
$upscope $end
$upscope $end
$scope module u_data_mem $end
$var wire 6 =" address [5:0] $end
$var wire 1 ! clock $end
$var wire 1 % read $end
$var wire 1 " reset $end
$var wire 1 $ write $end
$var wire 32 >" writedata [31:0] $end
$var reg 1 - busywait $end
$var reg 1 ?" readaccess $end
$var reg 32 @" readdata [31:0] $end
$var reg 1 A" writeaccess $end
$var integer 32 B" i [31:0] $end
$upscope $end
$scope module u_inst_mem $end
$var wire 6 C" address [5:0] $end
$var wire 1 ! clock $end
$var wire 1 ( read $end
$var reg 1 * busywait $end
$var reg 1 D" readaccess $end
$var reg 128 E" readinst [127:0] $end
$var integer 32 F" i [31:0] $end
$upscope $end
$upscope $end
$upscope $end
$scope module cpu_tb $end
$scope module mysystem $end
$scope module u_cpu $end
$scope module u_regfile $end
$var reg 8 G" \reg_array[0] [7:0] $end
$upscope $end
$upscope $end
$upscope $end
$upscope $end
$scope module cpu_tb $end
$scope module mysystem $end
$scope module u_cpu $end
$scope module u_data_cache $end
$var reg 32 H" \data_blocks[0] [31:0] $end
$upscope $end
$upscope $end
$upscope $end
$upscope $end
$scope module cpu_tb $end
$scope module mysystem $end
$scope module u_data_mem $end
$var reg 8 I" \memory_array[0] [7:0] $end
$upscope $end
$upscope $end
$upscope $end
$scope module cpu_tb $end
$scope module mysystem $end
$scope module u_cpu $end
$scope module u_inst_cache $end
$var reg 128 J" \data_array[0] [127:0] $end
$upscope $end
$upscope $end
$upscope $end
$upscope $end
$scope module cpu_tb $end
$scope module mysystem $end
$scope module u_inst_mem $end
$var reg 8 K" \memory_array[0] [7:0] $end
$upscope $end
$upscope $end
$upscope $end
$scope module cpu_tb $end
$scope module mysystem $end
$scope module u_cpu $end
$scope module u_regfile $end
$var reg 8 L" \reg_array[1] [7:0] $end
$upscope $end
$upscope $end
$upscope $end
$upscope $end
$scope module cpu_tb $end
$scope module mysystem $end
$scope module u_cpu $end
$scope module u_data_cache $end
$var reg 32 M" \data_blocks[1] [31:0] $end
$upscope $end
$upscope $end
$upscope $end
$upscope $end
$scope module cpu_tb $end
$scope module mysystem $end
$scope module u_data_mem $end
$var reg 8 N" \memory_array[1] [7:0] $end
$upscope $end
$upscope $end
$upscope $end
$scope module cpu_tb $end
$scope module mysystem $end
$scope module u_cpu $end
$scope module u_inst_cache $end
$var reg 128 O" \data_array[1] [127:0] $end
$upscope $end
$upscope $end
$upscope $end
$upscope $end
$scope module cpu_tb $end
$scope module mysystem $end
$scope module u_inst_mem $end
$var reg 8 P" \memory_array[1] [7:0] $end
$upscope $end
$upscope $end
$upscope $end
$scope module cpu_tb $end
$scope module mysystem $end
$scope module u_cpu $end
$scope module u_regfile $end
$var reg 8 Q" \reg_array[2] [7:0] $end
$upscope $end
$upscope $end
$upscope $end
$upscope $end
$scope module cpu_tb $end
$scope module mysystem $end
$scope module u_cpu $end
$scope module u_data_cache $end
$var reg 32 R" \data_blocks[2] [31:0] $end
$upscope $end
$upscope $end
$upscope $end
$upscope $end
$scope module cpu_tb $end
$scope module mysystem $end
$scope module u_data_mem $end
$var reg 8 S" \memory_array[2] [7:0] $end
$upscope $end
$upscope $end
$upscope $end
$scope module cpu_tb $end
$scope module mysystem $end
$scope module u_cpu $end
$scope module u_inst_cache $end
$var reg 128 T" \data_array[2] [127:0] $end
$upscope $end
$upscope $end
$upscope $end
$upscope $end
$scope module cpu_tb $end
$scope module mysystem $end
$scope module u_inst_mem $end
$var reg 8 U" \memory_array[2] [7:0] $end
$upscope $end
$upscope $end
$upscope $end
$scope module cpu_tb $end
$scope module mysystem $end
$scope module u_cpu $end
$scope module u_regfile $end
$var reg 8 V" \reg_array[3] [7:0] $end
$upscope $end
$upscope $end
$upscope $end
$upscope $end
$scope module cpu_tb $end
$scope module mysystem $end
$scope module u_cpu $end
$scope module u_data_cache $end
$var reg 32 W" \data_blocks[3] [31:0] $end
$upscope $end
$upscope $end
$upscope $end
$upscope $end
$scope module cpu_tb $end
$scope module mysystem $end
$scope module u_data_mem $end
$var reg 8 X" \memory_array[3] [7:0] $end
$upscope $end
$upscope $end
$upscope $end
$scope module cpu_tb $end
$scope module mysystem $end
$scope module u_cpu $end
$scope module u_inst_cache $end
$var reg 128 Y" \data_array[3] [127:0] $end
$upscope $end
$upscope $end
$upscope $end
$upscope $end
$scope module cpu_tb $end
$scope module mysystem $end
$scope module u_inst_mem $end
$var reg 8 Z" \memory_array[3] [7:0] $end
$upscope $end
$upscope $end
$upscope $end
$scope module cpu_tb $end
$scope module mysystem $end
$scope module u_cpu $end
$scope module u_regfile $end
$var reg 8 [" \reg_array[4] [7:0] $end
$upscope $end
$upscope $end
$upscope $end
$upscope $end
$scope module cpu_tb $end
$scope module mysystem $end
$scope module u_cpu $end
$scope module u_data_cache $end
$var reg 32 \" \data_blocks[4] [31:0] $end
$upscope $end
$upscope $end
$upscope $end
$upscope $end
$scope module cpu_tb $end
$scope module mysystem $end
$scope module u_data_mem $end
$var reg 8 ]" \memory_array[4] [7:0] $end
$upscope $end
$upscope $end
$upscope $end
$scope module cpu_tb $end
$scope module mysystem $end
$scope module u_cpu $end
$scope module u_inst_cache $end
$var reg 128 ^" \data_array[4] [127:0] $end
$upscope $end
$upscope $end
$upscope $end
$upscope $end
$scope module cpu_tb $end
$scope module mysystem $end
$scope module u_inst_mem $end
$var reg 8 _" \memory_array[4] [7:0] $end
$upscope $end
$upscope $end
$upscope $end
$scope module cpu_tb $end
$scope module mysystem $end
$scope module u_cpu $end
$scope module u_regfile $end
$var reg 8 `" \reg_array[5] [7:0] $end
$upscope $end
$upscope $end
$upscope $end
$upscope $end
$scope module cpu_tb $end
$scope module mysystem $end
$scope module u_cpu $end
$scope module u_data_cache $end
$var reg 32 a" \data_blocks[5] [31:0] $end
$upscope $end
$upscope $end
$upscope $end
$upscope $end
$scope module cpu_tb $end
$scope module mysystem $end
$scope module u_data_mem $end
$var reg 8 b" \memory_array[5] [7:0] $end
$upscope $end
$upscope $end
$upscope $end
$scope module cpu_tb $end
$scope module mysystem $end
$scope module u_cpu $end
$scope module u_inst_cache $end
$var reg 128 c" \data_array[5] [127:0] $end
$upscope $end
$upscope $end
$upscope $end
$upscope $end
$scope module cpu_tb $end
$scope module mysystem $end
$scope module u_inst_mem $end
$var reg 8 d" \memory_array[5] [7:0] $end
$upscope $end
$upscope $end
$upscope $end
$scope module cpu_tb $end
$scope module mysystem $end
$scope module u_cpu $end
$scope module u_regfile $end
$var reg 8 e" \reg_array[6] [7:0] $end
$upscope $end
$upscope $end
$upscope $end
$upscope $end
$scope module cpu_tb $end
$scope module mysystem $end
$scope module u_cpu $end
$scope module u_data_cache $end
$var reg 32 f" \data_blocks[6] [31:0] $end
$upscope $end
$upscope $end
$upscope $end
$upscope $end
$scope module cpu_tb $end
$scope module mysystem $end
$scope module u_data_mem $end
$var reg 8 g" \memory_array[6] [7:0] $end
$upscope $end
$upscope $end
$upscope $end
$scope module cpu_tb $end
$scope module mysystem $end
$scope module u_cpu $end
$scope module u_inst_cache $end
$var reg 128 h" \data_array[6] [127:0] $end
$upscope $end
$upscope $end
$upscope $end
$upscope $end
$scope module cpu_tb $end
$scope module mysystem $end
$scope module u_inst_mem $end
$var reg 8 i" \memory_array[6] [7:0] $end
$upscope $end
$upscope $end
$upscope $end
$scope module cpu_tb $end
$scope module mysystem $end
$scope module u_cpu $end
$scope module u_regfile $end
$var reg 8 j" \reg_array[7] [7:0] $end
$upscope $end
$upscope $end
$upscope $end
$upscope $end
$scope module cpu_tb $end
$scope module mysystem $end
$scope module u_cpu $end
$scope module u_data_cache $end
$var reg 32 k" \data_blocks[7] [31:0] $end
$upscope $end
$upscope $end
$upscope $end
$upscope $end
$scope module cpu_tb $end
$scope module mysystem $end
$scope module u_data_mem $end
$var reg 8 l" \memory_array[7] [7:0] $end
$upscope $end
$upscope $end
$upscope $end
$scope module cpu_tb $end
$scope module mysystem $end
$scope module u_cpu $end
$scope module u_inst_cache $end
$var reg 128 m" \data_array[7] [127:0] $end
$upscope $end
$upscope $end
$upscope $end
$upscope $end
$scope module cpu_tb $end
$scope module mysystem $end
$scope module u_inst_mem $end
$var reg 8 n" \memory_array[7] [7:0] $end
$upscope $end
$upscope $end
$upscope $end
$enddefinitions $end
#0
$dumpvars
b100011 n"
bx m"
b0 l"
b0 k"
bx j"
b0 i"
bx h"
b0 g"
b0 f"
bx e"
b101 d"
bx c"
b0 b"
b0 a"
bx `"
b0 _"
bx ^"
b0 ]"
b0 \"
bx ["
b11001 Z"
bx Y"
b0 X"
b0 W"
bx V"
b0 U"
bx T"
b0 S"
b0 R"
bx Q"
b100 P"
bx O"
b0 N"
b0 M"
bx L"
b0 K"
bx J"
b0 I"
b0 H"
bx G"
b10000000000 F"
bx E"
0D"
bx C"
b100000000 B"
0A"
bx @"
0?"
bx >"
bx ="
bx <"
bx ;"
bx :"
b0 9"
b0 8"
b0 7"
b0 6"
bx 5"
b0 4"
b0 3"
bx 2"
b0 1"
b0 0"
bx /"
b0 ."
b1000 -"
x,"
bx +"
0*"
bx )"
b0 ("
x'"
bx &"
x%"
bx $"
bx #"
bx ""
bx !"
bx ~
bx }
b1000 |
x{
b0 z
b0 y
xx
bx w
bx v
xu
xt
b0 s
b0 r
b0 q
bx p
bx o
b0 n
b0 m
bx l
b0 k
bx j
xi
b0 h
b0 g
bx f
b1000 e
bx00000000 d
b0 c
b0 b
b0 a
bx `
bx _
b0 ^
bx ]
bx \
b0 [
bx Z
bx Y
b0 X
bx W
bx V
b0 U
b0 T
bx S
xR
xQ
bx P
bx O
b0 N
bx M
b0 L
bx K
b0 J
bx I
b0 H
b0 G
bx F
bx E
b0 D
b0 C
xB
0A
bx @
b0 ?
bx >
bx =
0<
bx ;
bx :
bx 9
18
bx 7
b0 6
bx 5
04
b0 3
12
01
00
x/
0.
0-
bx ,
bx +
0*
bx )
0(
bx '
bx &
0%
0$
b1000 #
1"
0!
$end
#1
b1000 e
bx00000000 d
0R
0Q
b0 }
b0 ~
b0 ""
b0 E
b0 S
b0 l
b0 5
b0 #"
b0 /"
b0 2"
b0 P
b0 \
b0 O
b0 V
0t
0{
#2
1'"
0%"
0,"
1x
0u
#4
b0 k"
b0 f"
b0 a"
b0 \"
b0 W"
b0 R"
b0 M"
b0 H"
0B
b1000 -"
b1000 |
b1000 <"
1!
#5
b100 3"
b0 j"
b0 e"
b0 `"
b0 ["
b0 V"
b0 Q"
b0 L"
b0 G"
#6
b0 5"
#7
b1000 e
b0 d
b0 F
b0 I
b0 W
b0 Z
b0 ]
b0 `
b0 f
b0 9
b0 ;"
b0 :
b0 o
b0 :"
#8
b0 M
b0 _
0!
#9
1/
b0 K
b0 Y
#11
b0 3"
0"
#12
1D"
1*
1.
1*"
b0 +
b0 >
b0 &"
b0 C"
1(
1A
1!
#13
b0 G"
b100 3"
#16
0!
#20
1!
#21
b0 G"
#24
0!
#28
1!
#29
b0 G"
#32
0!
#36
1!
#37
b0 G"
#40
0!
#44
1!
#45
b0 G"
#48
0!
#52
1!
#53
b0 G"
#56
0!
#60
1!
bx00000000 )
bx00000000 =
bx00000000 !"
bx00000000 E"
#61
b0 G"
#64
0!
#68
1!
#69
b0 G"
#72
0!
#76
1!
#77
b0 G"
#80
0!
#84
1!
#85
b0 G"
#88
0!
#92
1!
#93
b0 G"
#96
0!
#100
1!
bx0000010000000000 )
bx0000010000000000 =
bx0000010000000000 !"
bx0000010000000000 E"
#101
b0 G"
#104
0!
#108
1!
#109
b0 G"
#112
0!
#116
1!
#117
b0 G"
#120
0!
#124
1!
#125
b0 G"
#128
0!
#132
1!
#133
b0 G"
#136
0!
#140
1!
bx000000000000010000000000 )
bx000000000000010000000000 =
bx000000000000010000000000 !"
bx000000000000010000000000 E"
#141
b0 G"
#144
0!
#148
1!
#149
b0 G"
#152
0!
#156
1!
#157
b0 G"
#160
0!
#164
1!
#165
b0 G"
#168
0!
#172
1!
#173
b0 G"
#176
0!
#180
1!
bx00011001000000000000010000000000 )
bx00011001000000000000010000000000 =
bx00011001000000000000010000000000 !"
bx00011001000000000000010000000000 E"
#181
b0 G"
#184
0!
#188
1!
#189
b0 G"
#192
0!
#196
1!
#197
b0 G"
#200
0!
#204
1!
#205
b0 G"
#208
0!
#212
1!
#213
b0 G"
#216
0!
#220
1!
bx0000000000011001000000000000010000000000 )
bx0000000000011001000000000000010000000000 =
bx0000000000011001000000000000010000000000 !"
bx0000000000011001000000000000010000000000 E"
#221
b0 G"
#224
0!
#228
1!
#229
b0 G"
#232
0!
#236
1!
#237
b0 G"
#240
0!
#244
1!
#245
b0 G"
#248
0!
#252
1!
#253
b0 G"
#256
0!
#260
1!
bx000001010000000000011001000000000000010000000000 )
bx000001010000000000011001000000000000010000000000 =
bx000001010000000000011001000000000000010000000000 !"
bx000001010000000000011001000000000000010000000000 E"
#261
b0 G"
#264
0!
#268
1!
#269
b0 G"
#272
0!
#276
1!
#277
b0 G"
#280
0!
#284
1!
#285
b0 G"
#288
0!
#292
1!
#293
b0 G"
#296
0!
#300
1!
bx00000000000001010000000000011001000000000000010000000000 )
bx00000000000001010000000000011001000000000000010000000000 =
bx00000000000001010000000000011001000000000000010000000000 !"
bx00000000000001010000000000011001000000000000010000000000 E"
#301
b0 G"
#304
0!
#308
1!
#309
b0 G"
#312
0!
#316
1!
#317
b0 G"
#320
0!
#324
1!
#325
b0 G"
#328
0!
#332
1!
#333
b0 G"
#336
0!
#340
1!
bx0010001100000000000001010000000000011001000000000000010000000000 )
bx0010001100000000000001010000000000011001000000000000010000000000 =
bx0010001100000000000001010000000000011001000000000000010000000000 !"
bx0010001100000000000001010000000000011001000000000000010000000000 E"
#341
b0 G"
#344
0!
#348
1!
#349
b0 G"
#352
0!
#356
1!
#357
b0 G"
#360
0!
#364
1!
#365
b0 G"
#368
0!
#372
1!
#373
b0 G"
#376
0!
#380
1!
bx000000100010001100000000000001010000000000011001000000000000010000000000 )
bx000000100010001100000000000001010000000000011001000000000000010000000000 =
bx000000100010001100000000000001010000000000011001000000000000010000000000 !"
bx000000100010001100000000000001010000000000011001000000000000010000000000 E"
#381
b0 G"
#384
0!
#388
1!
#389
b0 G"
#392
0!
#396
1!
#397
b0 G"
#400
0!
#404
1!
#405
b0 G"
#408
0!
#412
1!
#413
b0 G"
#416
0!
#420
1!
bx00000110000000100010001100000000000001010000000000011001000000000000010000000000 )
bx00000110000000100010001100000000000001010000000000011001000000000000010000000000 =
bx00000110000000100010001100000000000001010000000000011001000000000000010000000000 !"
bx00000110000000100010001100000000000001010000000000011001000000000000010000000000 E"
#421
b0 G"
#424
0!
#428
1!
#429
b0 G"
#432
0!
#436
1!
#437
b0 G"
#440
0!
#444
1!
#445
b0 G"
#448
0!
#452
1!
#453
b0 G"
#456
0!
#460
1!
bx0000010000000110000000100010001100000000000001010000000000011001000000000000010000000000 )
bx0000010000000110000000100010001100000000000001010000000000011001000000000000010000000000 =
bx0000010000000110000000100010001100000000000001010000000000011001000000000000010000000000 !"
bx0000010000000110000000100010001100000000000001010000000000011001000000000000010000000000 E"
#461
b0 G"
#464
0!
#468
1!
#469
b0 G"
#472
0!
#476
1!
#477
b0 G"
#480
0!
#484
1!
#485
b0 G"
#488
0!
#492
1!
#493
b0 G"
#496
0!
#500
1!
bx000001010000010000000110000000100010001100000000000001010000000000011001000000000000010000000000 )
bx000001010000010000000110000000100010001100000000000001010000000000011001000000000000010000000000 =
bx000001010000010000000110000000100010001100000000000001010000000000011001000000000000010000000000 !"
bx000001010000010000000110000000100010001100000000000001010000000000011001000000000000010000000000 E"
#501
b0 G"
#504
0!
#508
1!
#509
b0 G"
#512
0!
#516
1!
#517
b0 G"
#520
0!
#524
1!
#525
b0 G"
#528
0!
#532
1!
#533
b0 G"
#536
0!
#540
1!
bx00000000000001010000010000000110000000100010001100000000000001010000000000011001000000000000010000000000 )
bx00000000000001010000010000000110000000100010001100000000000001010000000000011001000000000000010000000000 =
bx00000000000001010000010000000110000000100010001100000000000001010000000000011001000000000000010000000000 !"
bx00000000000001010000010000000110000000100010001100000000000001010000000000011001000000000000010000000000 E"
#541
b0 G"
#544
0!
#548
1!
#549
b0 G"
#552
0!
#556
1!
#557
b0 G"
#560
0!
#564
1!
#565
b0 G"
#568
0!
#572
1!
#573
b0 G"
#576
0!
#580
1!
bx0000000100000000000001010000010000000110000000100010001100000000000001010000000000011001000000000000010000000000 )
bx0000000100000000000001010000010000000110000000100010001100000000000001010000000000011001000000000000010000000000 =
bx0000000100000000000001010000010000000110000000100010001100000000000001010000000000011001000000000000010000000000 !"
bx0000000100000000000001010000010000000110000000100010001100000000000001010000000000011001000000000000010000000000 E"
#581
b0 G"
#584
0!
#588
1!
#589
b0 G"
#592
0!
#596
1!
#597
b0 G"
#600
0!
#604
1!
#605
b0 G"
#608
0!
#612
1!
#613
b0 G"
#616
0!
#620
1!
bx000000000000000100000000000001010000010000000110000000100010001100000000000001010000000000011001000000000000010000000000 )
bx000000000000000100000000000001010000010000000110000000100010001100000000000001010000000000011001000000000000010000000000 =
bx000000000000000100000000000001010000010000000110000000100010001100000000000001010000000000011001000000000000010000000000 !"
bx000000000000000100000000000001010000010000000110000000100010001100000000000001010000000000011001000000000000010000000000 E"
#621
b0 G"
#624
0!
#628
1!
#629
b0 G"
#632
0!
#636
1!
#637
b0 G"
#640
0!
#644
1!
#645
b0 G"
#648
0!
#652
1!
#653
b0 G"
#656
0!
#660
0(
1!
0D"
0*
b1011010000000000000000100000000000001010000010000000110000000100010001100000000000001010000000000011001000000000000010000000000 )
b1011010000000000000000100000000000001010000010000000110000000100010001100000000000001010000000000011001000000000000010000000000 =
b1011010000000000000000100000000000001010000010000000110000000100010001100000000000001010000000000011001000000000000010000000000 !"
b1011010000000000000000100000000000001010000010000000110000000100010001100000000000001010000000000011001000000000000010000000000 E"
#661
b1011010000000000000000100000000000001010000010000000110000000100010001100000000000001010000000000011001000000000000010000000000 J"
b0 G"
#662
1,"
b0 +"
b1011010000000000000000100000000000001010000010000000110000000100010001100000000000001010000000000011001000000000000010000000000 $"
#663
xB
x4
x0
x2
x8
x1
x<
bx C
bx m
bx 0"
b1000 e
bx 9"
bx 8"
bx 6"
bx k
bx 1"
b0 G
b0 J
b0 U
b0 X
b0 [
b0 ^
b0 a
b0 g
0*"
bx ?
bx ("
0'"
1%"
b11001000000000000010000000000 )"
#664
b1000 e
xR
xQ
bx E
bx S
bx l
0!
#665
b1000 e
bx00000000 d
bx G
bx J
bx U
bx X
bx [
bx ^
bx a
bx g
bx F
bx I
bx W
bx Z
bx ]
bx `
bx f
bx 9
bx ;"
bx :
bx o
bx :"
#666
bx P
bx \
bx M
bx _
bx O
bx V
#667
x/
bx K
bx Y
#668
bx N
bx b
bx c
b1000 e
bx00000000 d
0B
b11001 G
b11001 J
b11001 U
b11001 X
b11001 [
b11001 ^
b11001 a
b11001 g
04
00
12
18
01
0<
b0 C
b0 m
b0 0"
b1 9"
b0 8"
b100 6"
b0 k
b100 1"
0.
b11001000000000000010000000000 ?
b11001000000000000010000000000 ("
0A
1!
#669
b1 r
b110 q
b0 N
b0 b
b1000 e
bx00000000 d
bx c
b11001 H
b11001 7"
0R
0Q
b11001 D
b11001 T
b11001 n
b0 E
b0 S
b0 l
b0xx00x P
b0xx00x \
bx11xx1 M
bx11xx1 _
b11001 O
b11001 V
#670
b1000 e
b0 d
b0 c
b0 F
b0 I
b0 W
b0 Z
b0 ]
b0 `
b0 f
b0 9
b0 ;"
b0 :
b0 o
b0 :"
#671
b0 P
b0 \
b11001 M
b11001 _
#672
0/
b11001 K
b11001 Y
0!
#676
b100 6
b100 ."
b100 4"
1!
#677
b100 ~
b100 5
b100 #"
b100 /"
b100 2"
b11001 ["
#678
b10100 5"
b100011000000000000010100000000 )"
#680
0!
#684
b1000 e
b11 9"
b101 6"
b101 1"
b100011 G
b100011 J
b100011 U
b100011 X
b100011 [
b100011 ^
b100011 a
b100011 g
b100011000000000000010100000000 ?
b100011000000000000010100000000 ("
1!
#685
b11 r
b0 q
b1 s
b11001 ["
b1000 3"
b100011 H
b100011 7"
b100011 D
b100011 T
b100011 n
b100011 M
b100011 _
b100011 O
b100011 V
#686
b100011 K
b100011 Y
#688
0!
#692
b1000 6
b1000 ."
b1000 4"
1!
#693
b1000 ~
b1000 5
b1000 #"
b1000 /"
b1000 2"
b100011 `"
#694
b11100 5"
b101000001000000011000000010 )"
#696
0!
#700
08
b1000 e
b101 9"
b100 8"
b110 6"
b10 k
b110 1"
b0 G
b0 J
b0 U
b0 X
b0 [
b0 ^
b0 a
b0 g
b101000001000000011000000010 ?
b101000001000000011000000010 ("
1!
#701
b11 r
b1 s
b1 E
b1 S
b1 l
b100011 `"
b1100 3"
b100011 H
b100011 7"
b100011 D
b100011 T
b100011 n
b0 M
b0 _
b0 O
b0 V
#702
b1101101011 c
b1000 e
b1100100000000 d
b100011 G
b100011 J
b100011 U
b100011 X
b100011 [
b100011 ^
b100011 a
b100011 g
b11001 F
b11001 I
b11001 W
b11001 Z
b11001 ]
b11001 `
b11001 f
b0 r
b0 s
b100011 9
b100011 ;"
b11001 :
b11001 o
b11001 :"
b0 H
b0 7"
1/
b0 D
b0 T
b0 n
b0 K
b0 Y
#703
b1 P
b1 \
b111011 M
b111011 _
b100011 O
b100011 V
#704
b111 q
b1 s
b111100 H
b111100 7"
0/
b111100 D
b111100 T
b111100 n
b111100 K
b111100 Y
0!
#708
b1100 6
b1100 ."
b1100 4"
1!
#709
b1100 ~
b1100 5
b1100 #"
b1100 /"
b1100 2"
b111100 e"
#710
b100100 5"
b1011010000000000000000100000000 )"
#712
0!
#716
b1000 e
b1100100000000 d
b100011001010 c
b1011010 G
b1011010 J
b1011010 U
b1011010 X
b1011010 [
b1011010 ^
b1011010 a
b1011010 g
18
b10 9"
b0 8"
b1 6"
b0 k
b1 1"
b1011010000000000000000100000000 ?
b1011010000000000000000100000000 ("
1!
#717
b10 r
b110 q
b10 s
b1011010 H
b1011010 7"
b1011010 D
b1011010 T
b1011010 n
b0 E
b0 S
b0 l
b111100 e"
b10000 3"
b11000 P
b11000 \
b1011011 M
b1011011 _
b1011010 O
b1011010 V
#718
b1000 e
b0 d
b0 c
b0 F
b0 I
b0 W
b0 Z
b0 ]
b0 `
b0 f
b0 9
b0 ;"
b0 :
b0 o
b0 :"
b1110011 K
b1110011 Y
#719
b0 P
b0 \
b1011010 M
b1011010 _
